com\shafic\test\facebookWebSignIn.class
com\shafic\test\steps\UserSteps.class
com\shafic\test\pages\CirclesSignInPage.class
com\shafic\test\circlesSignIn.class
com\shafic\test\steps\CirclesLifeScenariosSteps.class
com\shafic\test\pages\FacebookWallPage.class
com\shafic\test\pages\FacebookLoginPage.class
