C:\Users\Shafic\circlesLife\serenitycucumberbdd\src\test\java\com\shafic\test\pages\FacebookWallPage.java
C:\Users\Shafic\circlesLife\serenitycucumberbdd\src\test\java\com\shafic\test\steps\CirclesLifeScenariosSteps.java
C:\Users\Shafic\circlesLife\serenitycucumberbdd\src\test\java\com\shafic\test\facebookWebSignIn.java
C:\Users\Shafic\circlesLife\serenitycucumberbdd\src\test\java\com\shafic\test\pages\CirclesSignInPage.java
C:\Users\Shafic\circlesLife\serenitycucumberbdd\src\test\java\com\shafic\test\steps\UserSteps.java
C:\Users\Shafic\circlesLife\serenitycucumberbdd\src\test\java\com\shafic\test\circlesSignIn.java
C:\Users\Shafic\circlesLife\serenitycucumberbdd\src\test\java\com\shafic\test\pages\FacebookLoginPage.java
